[
    {	"pk": 1, "model": "{{project_name}}.chunk",
        "fields": {
            "key": "INDEX",
            "body": "<p>this piece of text can be edited in <a href='/admin/'>admin panel</a> chunks menu</p><p>add your items in <a href='/admin/'>admin panel</a> to see them below</p>" 
    	}
    }
]